^C:\USERS\中村T\DESKTOP\ゲーム大賞\KEYBOARD.CPP
/c /I./DXLIB/ /ZI /JMC /nologo /W3 /WX- /diagnostics:column /sdl /Od /D _MBCS /Gm- /EHsc /RTC1 /MTd /GS /fp:precise /Zc:wchar_t /Zc:forScope /Zc:inline /Fo"X64\DEBUG\\" /Fd"X64\DEBUG\VC142.PDB" /Gd /TP /FC C:\USERS\中村T\DESKTOP\ゲーム大賞\KEYBOARD.CPP
^C:\USERS\中村T\DESKTOP\ゲーム大賞\TEST.CPP
/c /I./DXLIB/ /ZI /JMC /nologo /W3 /WX- /diagnostics:column /sdl /Od /D _MBCS /Gm- /EHsc /RTC1 /MTd /GS /fp:precise /Zc:wchar_t /Zc:forScope /Zc:inline /Fo"X64\DEBUG\\" /Fd"X64\DEBUG\VC142.PDB" /Gd /TP /FC C:\USERS\中村T\DESKTOP\ゲーム大賞\TEST.CPP
^C:\USERS\中村T\DESKTOP\ゲーム大賞\GAME.CPP
/c /I./DXLIB/ /ZI /JMC /nologo /W3 /WX- /diagnostics:column /sdl /Od /D _MBCS /Gm- /EHsc /RTC1 /MTd /GS /fp:precise /Zc:wchar_t /Zc:forScope /Zc:inline /Fo"X64\DEBUG\\" /Fd"X64\DEBUG\VC142.PDB" /Gd /TP /FC C:\USERS\中村T\DESKTOP\ゲーム大賞\GAME.CPP
^C:\USERS\中村T\DESKTOP\ゲーム大賞\MAIN.CPP
/c /I./DXLIB/ /ZI /JMC /nologo /W3 /WX- /diagnostics:column /sdl /Od /D _MBCS /Gm- /EHsc /RTC1 /MTd /GS /fp:precise /Zc:wchar_t /Zc:forScope /Zc:inline /Fo"X64\DEBUG\\" /Fd"X64\DEBUG\VC142.PDB" /Gd /TP /FC C:\USERS\中村T\DESKTOP\ゲーム大賞\MAIN.CPP
^C:\USERS\中村T\DESKTOP\ゲーム大賞\OVER.CPP
/c /I./DXLIB/ /ZI /JMC /nologo /W3 /WX- /diagnostics:column /sdl /Od /D _MBCS /Gm- /EHsc /RTC1 /MTd /GS /fp:precise /Zc:wchar_t /Zc:forScope /Zc:inline /Fo"X64\DEBUG\\" /Fd"X64\DEBUG\VC142.PDB" /Gd /TP /FC C:\USERS\中村T\DESKTOP\ゲーム大賞\OVER.CPP
^C:\USERS\中村T\DESKTOP\ゲーム大賞\SCENEMGR.CPP
/c /I./DXLIB/ /ZI /JMC /nologo /W3 /WX- /diagnostics:column /sdl /Od /D _MBCS /Gm- /EHsc /RTC1 /MTd /GS /fp:precise /Zc:wchar_t /Zc:forScope /Zc:inline /Fo"X64\DEBUG\\" /Fd"X64\DEBUG\VC142.PDB" /Gd /TP /FC C:\USERS\中村T\DESKTOP\ゲーム大賞\SCENEMGR.CPP
^C:\USERS\中村T\DESKTOP\ゲーム大賞\TITLE.CPP
/c /I./DXLIB/ /ZI /JMC /nologo /W3 /WX- /diagnostics:column /sdl /Od /D _MBCS /Gm- /EHsc /RTC1 /MTd /GS /fp:precise /Zc:wchar_t /Zc:forScope /Zc:inline /Fo"X64\DEBUG\\" /Fd"X64\DEBUG\VC142.PDB" /Gd /TP /FC C:\USERS\中村T\DESKTOP\ゲーム大賞\TITLE.CPP
^C:\USERS\KCYRI\SOURCE\REPOS\授業用\ゲーム大賞\GAME.CPP
/c /I./DXLIB/ /ZI /JMC /nologo /W3 /WX- /diagnostics:column /sdl /Od /D _MBCS /Gm- /EHsc /RTC1 /MTd /GS /fp:precise /Zc:wchar_t /Zc:forScope /Zc:inline /Fo"X64\DEBUG\\" /Fd"X64\DEBUG\VC142.PDB" /Gd /TP /FC C:\USERS\KCYRI\SOURCE\REPOS\授業用\ゲーム大賞\GAME.CPP
^C:\USERS\KCYRI\SOURCE\REPOS\授業用\ゲーム大賞\KEYBOARD.CPP
/c /I./DXLIB/ /ZI /JMC /nologo /W3 /WX- /diagnostics:column /sdl /Od /D _MBCS /Gm- /EHsc /RTC1 /MTd /GS /fp:precise /Zc:wchar_t /Zc:forScope /Zc:inline /Fo"X64\DEBUG\\" /Fd"X64\DEBUG\VC142.PDB" /Gd /TP /FC C:\USERS\KCYRI\SOURCE\REPOS\授業用\ゲーム大賞\KEYBOARD.CPP
^C:\USERS\KCYRI\SOURCE\REPOS\授業用\ゲーム大賞\B1.CPP
/c /I./DXLIB/ /ZI /JMC /nologo /W3 /WX- /diagnostics:column /sdl /Od /D _MBCS /Gm- /EHsc /RTC1 /MTd /GS /fp:precise /Zc:wchar_t /Zc:forScope /Zc:inline /Fo"X64\DEBUG\\" /Fd"X64\DEBUG\VC142.PDB" /Gd /TP /FC C:\USERS\KCYRI\SOURCE\REPOS\授業用\ゲーム大賞\B1.CPP
^C:\USERS\KCYRI\SOURCE\REPOS\授業用\ゲーム大賞\B2.CPP
/c /I./DXLIB/ /ZI /JMC /nologo /W3 /WX- /diagnostics:column /sdl /Od /D _MBCS /Gm- /EHsc /RTC1 /MTd /GS /fp:precise /Zc:wchar_t /Zc:forScope /Zc:inline /Fo"X64\DEBUG\\" /Fd"X64\DEBUG\VC142.PDB" /Gd /TP /FC C:\USERS\KCYRI\SOURCE\REPOS\授業用\ゲーム大賞\B2.CPP
^C:\USERS\KCYRI\SOURCE\REPOS\授業用\ゲーム大賞\B3.CPP
/c /I./DXLIB/ /ZI /JMC /nologo /W3 /WX- /diagnostics:column /sdl /Od /D _MBCS /Gm- /EHsc /RTC1 /MTd /GS /fp:precise /Zc:wchar_t /Zc:forScope /Zc:inline /Fo"X64\DEBUG\\" /Fd"X64\DEBUG\VC142.PDB" /Gd /TP /FC C:\USERS\KCYRI\SOURCE\REPOS\授業用\ゲーム大賞\B3.CPP
^C:\USERS\KCYRI\SOURCE\REPOS\授業用\ゲーム大賞\B4.CPP
/c /I./DXLIB/ /ZI /JMC /nologo /W3 /WX- /diagnostics:column /sdl /Od /D _MBCS /Gm- /EHsc /RTC1 /MTd /GS /fp:precise /Zc:wchar_t /Zc:forScope /Zc:inline /Fo"X64\DEBUG\\" /Fd"X64\DEBUG\VC142.PDB" /Gd /TP /FC C:\USERS\KCYRI\SOURCE\REPOS\授業用\ゲーム大賞\B4.CPP
^C:\USERS\KCYRI\SOURCE\REPOS\授業用\ゲーム大賞\F1.CPP
/c /I./DXLIB/ /ZI /JMC /nologo /W3 /WX- /diagnostics:column /sdl /Od /D _MBCS /Gm- /EHsc /RTC1 /MTd /GS /fp:precise /Zc:wchar_t /Zc:forScope /Zc:inline /Fo"X64\DEBUG\\" /Fd"X64\DEBUG\VC142.PDB" /Gd /TP /FC C:\USERS\KCYRI\SOURCE\REPOS\授業用\ゲーム大賞\F1.CPP
^C:\USERS\KCYRI\SOURCE\REPOS\授業用\ゲーム大賞\FOREST.CPP
/c /I./DXLIB/ /ZI /JMC /nologo /W3 /WX- /diagnostics:column /sdl /Od /D _MBCS /Gm- /EHsc /RTC1 /MTd /GS /fp:precise /Zc:wchar_t /Zc:forScope /Zc:inline /Fo"X64\DEBUG\\" /Fd"X64\DEBUG\VC142.PDB" /Gd /TP /FC C:\USERS\KCYRI\SOURCE\REPOS\授業用\ゲーム大賞\FOREST.CPP
^C:\USERS\KCYRI\SOURCE\REPOS\授業用\ゲーム大賞\MAIN.CPP
/c /I./DXLIB/ /ZI /JMC /nologo /W3 /WX- /diagnostics:column /sdl /Od /D _MBCS /Gm- /EHsc /RTC1 /MTd /GS /fp:precise /Zc:wchar_t /Zc:forScope /Zc:inline /Fo"X64\DEBUG\\" /Fd"X64\DEBUG\VC142.PDB" /Gd /TP /FC C:\USERS\KCYRI\SOURCE\REPOS\授業用\ゲーム大賞\MAIN.CPP
^C:\USERS\KCYRI\SOURCE\REPOS\授業用\ゲーム大賞\OVER.CPP
/c /I./DXLIB/ /ZI /JMC /nologo /W3 /WX- /diagnostics:column /sdl /Od /D _MBCS /Gm- /EHsc /RTC1 /MTd /GS /fp:precise /Zc:wchar_t /Zc:forScope /Zc:inline /Fo"X64\DEBUG\\" /Fd"X64\DEBUG\VC142.PDB" /Gd /TP /FC C:\USERS\KCYRI\SOURCE\REPOS\授業用\ゲーム大賞\OVER.CPP
^C:\USERS\KCYRI\SOURCE\REPOS\授業用\ゲーム大賞\ROOFTOP.CPP
/c /I./DXLIB/ /ZI /JMC /nologo /W3 /WX- /diagnostics:column /sdl /Od /D _MBCS /Gm- /EHsc /RTC1 /MTd /GS /fp:precise /Zc:wchar_t /Zc:forScope /Zc:inline /Fo"X64\DEBUG\\" /Fd"X64\DEBUG\VC142.PDB" /Gd /TP /FC C:\USERS\KCYRI\SOURCE\REPOS\授業用\ゲーム大賞\ROOFTOP.CPP
^C:\USERS\KCYRI\SOURCE\REPOS\授業用\ゲーム大賞\SCENEMGR.CPP
/c /I./DXLIB/ /ZI /JMC /nologo /W3 /WX- /diagnostics:column /sdl /Od /D _MBCS /Gm- /EHsc /RTC1 /MTd /GS /fp:precise /Zc:wchar_t /Zc:forScope /Zc:inline /Fo"X64\DEBUG\\" /Fd"X64\DEBUG\VC142.PDB" /Gd /TP /FC C:\USERS\KCYRI\SOURCE\REPOS\授業用\ゲーム大賞\SCENEMGR.CPP
^C:\USERS\KCYRI\SOURCE\REPOS\授業用\ゲーム大賞\TITLE.CPP
/c /I./DXLIB/ /ZI /JMC /nologo /W3 /WX- /diagnostics:column /sdl /Od /D _MBCS /Gm- /EHsc /RTC1 /MTd /GS /fp:precise /Zc:wchar_t /Zc:forScope /Zc:inline /Fo"X64\DEBUG\\" /Fd"X64\DEBUG\VC142.PDB" /Gd /TP /FC C:\USERS\KCYRI\SOURCE\REPOS\授業用\ゲーム大賞\TITLE.CPP
